…
```r
sim1_dist <- function(a1, a2) {
  measure_distance(c(a1, a2), sim1)
} # using fucntion from before... 

# add "dist" col for each model
models <- models %>% 
  mutate(dist = purrr::map2_dbl(a1, a2, sim1_dist))
models # print results
```

```
## # A tibble: 250 × 3
##            a1         a2      dist
##         <dbl>      <dbl>     <dbl>
## 1   -9.419264  4.9423842  8.864555
## 2   34.881594 -0.2652795 19.232202
## 3   39.042743 -3.5280854 16.687104
## 4   24.811319  2.9401942 25.693960
## 5   -9.977704 -3.1933229 45.654863
## 6    5.282226 -1.1248924 18.895031
## 7   37.554378  4.4597693 47.137730
## 8   23.943527  1.0396891 14.608639
## 9    4.471778  3.9297442 12.066173
## 10 -18.192184 -3.0548763 52.628180
## # ... with 240 more rows
```
…
